<?xml version="1.0" encoding="utf-8"?>
<!-- Generator: Adobe Illustrator 22.0.2, SVG Export Plug-In . SVG Version: 6.00 Build 0)  -->
<svg version="1.1" id="Layer_1" xmlns="http://www.w3.org/2000/svg" xmlns:xlink="http://www.w3.org/1999/xlink" x="0px" y="0px"
	 viewBox="0 0 75 75" style="enable-background:new 0 0 75 75;" xml:space="preserve">
<style type="text/css">
	.st0{opacity:0.5;}
	.st1{fill:#43EDCE;}
	.st2{fill:none;stroke:#FFFFFF;stroke-miterlimit:10;}
</style>
<g class="st0">
	<circle class="st1" cx="37.5" cy="37.5" r="37.5"/>
</g>
<g>
	<circle class="st1" cx="37.5" cy="37.5" r="27.5"/>
</g>
<line class="st2" x1="37.5" y1="47.5" x2="37.5" y2="27.5"/>
<line class="st2" x1="47.5" y1="37.5" x2="27.5" y2="37.5"/>
</svg>
