{
  "name": "2F",
  "version": "1.1.0",
  "description": "",
  "attribution": "Rendered with <a href=\"https://www.maptiler.com/desktop/\">MapTiler Desktop</a>",
  "type": "overlay",
  "format": "png",
  "minzoom": "16",
  "maxzoom": "23",
  "scale": "1.000000",
  "bounds": [121.56367506, 25.03634248, 121.56520514, 25.03869350],
  "profile": "mercator"
}
